{
  guns: [
    {
      'repeat:4':{
          preview: 'http://placehold.it/165x85',
          title: '{{lorem(2, "words")}}',
          subtitle: '{{lorem(1, "words")}}',
          theme: '{{random("red", "purple", "yellow", "blue")}}',
          selected: false
      }
    }
  ]
}